{
  "globalDependencies": {
    "core-js": "registry:dt/core-js#0.0.0+20160317120654",
    "jasmine": "registry:dt/jasmine#2.2.0+20160505161446",
    "jquery": "registry:dt/jquery#1.10.0+20160704162008",
    "materialize-css": "registry:dt/materialize-css#0.97.5+20160628040906"
  }
}
