<?xml version="1.0" encoding="utf-8"?>
<!-- Generator: Adobe Illustrator 16.0.3, SVG Export Plug-In . SVG Version: 6.00 Build 0)  -->
<!DOCTYPE svg PUBLIC "-//W3C//DTD SVG 1.1 Basic//EN" "http://www.w3.org/Graphics/SVG/1.1/DTD/svg11-basic.dtd" [
	<!ENTITY ns_flows "http://ns.adobe.com/Flows/1.0/">
	<!ENTITY ns_extend "http://ns.adobe.com/Extensibility/1.0/">
	<!ENTITY ns_ai "http://ns.adobe.com/AdobeIllustrator/10.0/">
	<!ENTITY ns_graphs "http://ns.adobe.com/Graphs/1.0/">
]>
<svg version="1.1" baseProfile="basic" id="Ebene_1" xmlns:x="&ns_extend;" xmlns:i="&ns_ai;" xmlns:graph="&ns_graphs;"
	 xmlns="http://www.w3.org/2000/svg" xmlns:xlink="http://www.w3.org/1999/xlink" xmlns:a="http://ns.adobe.com/AdobeSVGViewerExtensions/3.0/"
	 x="0px" y="0px" width="175.811px" height="47.572px" viewBox="0 0 175.811 47.572" xml:space="preserve">
<g>
	<path d="M152.264,4.768c10.373,0,18.781,8.404,18.781,18.78c0,10.373-8.408,18.781-18.781,18.781s-18.782-8.408-18.782-18.781
		C133.481,13.172,141.891,4.768,152.264,4.768 M152.264,0c-13.004,0-23.548,10.65-23.548,23.786
		c0,13.139,9.817,23.786,23.983,23.786h23.111V36.057h-3.373c2.141-3.584,3.373-7.781,3.373-12.271
		C175.811,10.65,165.267,0,152.264,0"/>
	<path d="M34.748,36.317V23.179h-3.455v8.895c-0.309,0.382-0.718,0.728-1.224,1.032c-0.508,0.309-1.099,0.463-1.767,0.463
		c-0.746,0-1.334-0.178-1.769-0.529c-0.437-0.353-0.653-0.982-0.653-1.891v-7.97h-3.455v9.33c0,1.288,0.344,2.3,1.034,3.031
		c0.69,0.734,1.758,1.103,3.21,1.103c1.088,0,2.017-0.204,2.787-0.609c0.77-0.409,1.383-0.869,1.836-1.375v1.659H34.748z
		 M51.188,36.317V23.179H47.68v1.687c-0.527-0.67-1.133-1.173-1.823-1.509c-0.689-0.335-1.423-0.503-2.203-0.503
		c-0.833,0-1.608,0.158-2.325,0.477c-0.715,0.318-1.332,0.774-1.849,1.374c-0.517,0.597-0.922,1.321-1.21,2.173
		c-0.29,0.854-0.436,1.813-0.436,2.883c0,1.09,0.148,2.065,0.449,2.927c0.298,0.858,0.707,1.579,1.224,2.159
		c0.517,0.584,1.128,1.026,1.835,1.334c0.708,0.309,1.479,0.463,2.312,0.463c0.798,0,1.542-0.174,2.229-0.516
		c0.691-0.346,1.298-0.842,1.824-1.499v1.689H51.188z M43.369,33.297c-0.408-0.181-0.758-0.439-1.047-0.774s-0.518-0.737-0.68-1.21
		c-0.165-0.473-0.245-0.989-0.245-1.553c0-1.14,0.309-2.059,0.925-2.759c0.615-0.697,1.414-1.046,2.393-1.046
		c0.58,0,1.151,0.141,1.713,0.419c0.562,0.285,0.989,0.641,1.279,1.076v4.623c-0.29,0.436-0.718,0.795-1.279,1.076
		c-0.562,0.282-1.133,0.419-1.713,0.419C44.226,33.568,43.776,33.479,43.369,33.297 M67.615,36.317V18.174h-3.48v6.691
		c-0.527-0.67-1.139-1.173-1.836-1.509c-0.699-0.335-1.437-0.503-2.216-0.503c-0.837,0-1.611,0.158-2.327,0.477
		c-0.717,0.318-1.332,0.774-1.849,1.374c-0.519,0.597-0.921,1.321-1.21,2.173c-0.29,0.854-0.435,1.813-0.435,2.883
		c0,1.09,0.149,2.065,0.447,2.927c0.299,0.858,0.708,1.579,1.224,2.159c0.517,0.584,1.13,1.026,1.838,1.334
		c0.707,0.309,1.475,0.463,2.312,0.463c0.796,0,1.54-0.174,2.229-0.516c0.688-0.346,1.295-0.842,1.822-1.499v1.689H67.615z
		 M59.796,33.297c-0.409-0.181-0.758-0.439-1.048-0.774c-0.289-0.335-0.516-0.737-0.679-1.21c-0.164-0.473-0.246-0.989-0.246-1.553
		c0-1.14,0.31-2.064,0.925-2.772c0.617-0.707,1.415-1.06,2.396-1.06c0.579,0,1.15,0.142,1.714,0.423
		c0.561,0.281,0.986,0.637,1.277,1.073v4.649c-0.291,0.436-0.717,0.795-1.277,1.076c-0.563,0.282-1.135,0.419-1.714,0.419
		C60.652,33.568,60.205,33.479,59.796,33.297 M74.781,36.317v-8.676c0.145-0.218,0.341-0.419,0.586-0.601
		c0.244-0.181,0.516-0.338,0.816-0.476c0.298-0.135,0.608-0.241,0.925-0.313c0.315-0.073,0.62-0.106,0.91-0.106
		c0.381,0,0.699,0.026,0.952,0.08v-3.373c-0.816,0-1.601,0.208-2.354,0.627c-0.751,0.416-1.364,0.916-1.836,1.492v-1.794h-3.454
		v13.139H74.781z M84.496,21.168c0.4-0.399,0.6-0.889,0.6-1.469s-0.199-1.066-0.6-1.455c-0.397-0.389-0.887-0.587-1.467-0.587
		c-0.563,0-1.048,0.198-1.457,0.587c-0.407,0.389-0.61,0.875-0.61,1.455s0.203,1.069,0.61,1.469c0.409,0.398,0.894,0.6,1.457,0.6
		C83.609,21.768,84.099,21.566,84.496,21.168 M84.77,23.179h-3.455v13.136h3.455V23.179z M96.442,41.377
		c0.833-0.185,1.596-0.503,2.283-0.966c0.69-0.463,1.252-1.1,1.688-1.904c0.434-0.808,0.651-1.837,0.651-3.088v-12.24h-3.481v1.687
		c-0.526-0.67-1.131-1.173-1.822-1.509c-0.688-0.335-1.432-0.503-2.229-0.503c-0.835,0-1.605,0.145-2.313,0.437
		c-0.707,0.288-1.317,0.721-1.833,1.29c-0.519,0.57-0.923,1.274-1.211,2.105c-0.29,0.838-0.436,1.787-0.436,2.856
		c0,1.09,0.149,2.052,0.447,2.887c0.301,0.831,0.71,1.532,1.226,2.092c0.517,0.563,1.128,0.989,1.836,1.281
		c0.707,0.288,1.468,0.432,2.284,0.432c0.815,0,1.563-0.181,2.243-0.543s1.282-0.871,1.809-1.521V35.5
		c0,0.653-0.107,1.193-0.325,1.619s-0.503,0.768-0.856,1.019c-0.354,0.255-0.746,0.433-1.172,0.53
		c-0.426,0.101-0.845,0.15-1.264,0.15c-0.833,0-1.596-0.127-2.283-0.379c-0.69-0.255-1.297-0.674-1.824-1.254l-1.549,2.505
		c0.832,0.724,1.698,1.23,2.597,1.521c0.898,0.292,1.918,0.437,3.06,0.437C94.783,41.648,95.609,41.558,96.442,41.377
		 M92.225,32.211c-0.615-0.634-0.922-1.525-0.922-2.669c0-1.14,0.307-2.028,0.922-2.665c0.617-0.634,1.415-0.949,2.396-0.949
		c0.58,0,1.146,0.142,1.7,0.423c0.551,0.281,0.974,0.637,1.264,1.073v4.24c-0.29,0.419-0.713,0.771-1.264,1.063
		c-0.554,0.289-1.12,0.437-1.7,0.437C93.64,33.163,92.842,32.845,92.225,32.211 M117.493,36.317V23.179h-3.507v1.687
		c-0.528-0.67-1.135-1.173-1.824-1.509c-0.69-0.335-1.425-0.503-2.202-0.503c-0.835,0-1.609,0.158-2.325,0.477
		c-0.717,0.318-1.334,0.774-1.851,1.374c-0.517,0.597-0.92,1.321-1.21,2.173c-0.29,0.854-0.435,1.813-0.435,2.883
		c0,1.09,0.147,2.065,0.448,2.927c0.298,0.858,0.707,1.579,1.223,2.159c0.519,0.584,1.131,1.026,1.838,1.334
		c0.707,0.309,1.477,0.463,2.312,0.463c0.798,0,1.54-0.174,2.229-0.516c0.688-0.346,1.297-0.842,1.822-1.499v1.689H117.493z
		 M109.673,33.297c-0.407-0.181-0.756-0.439-1.046-0.774s-0.518-0.737-0.68-1.21c-0.163-0.473-0.245-0.989-0.245-1.553
		c0-1.14,0.308-2.059,0.925-2.759c0.615-0.697,1.413-1.046,2.393-1.046c0.58,0,1.151,0.141,1.715,0.419
		c0.562,0.285,0.987,0.641,1.277,1.076v4.623c-0.29,0.436-0.716,0.795-1.277,1.076c-0.563,0.282-1.135,0.419-1.715,0.419
		C110.529,33.568,110.082,33.479,109.673,33.297"/>
	<path d="M16.589,33.692c1.493-1.636,2.362-3.865,2.362-6.427c0-5.471-3.993-9.391-9.479-9.391c-5.461,0-9.452,3.92-9.452,9.391
		c0,5.475,3.991,9.391,9.452,9.391c1.576,0,3.014-0.325,4.291-0.896l1.466,1.687l0.007-0.007l1.311,1.532l2.688-2.206l-1.585-1.84
		L16.589,33.692z M14.986,27.266c0,0.507-0.063,0.986-0.156,1.452c-0.015,0.077-0.028,0.154-0.045,0.228
		c-0.059,0.241-0.133,0.473-0.213,0.701c-0.032,0.09-0.057,0.184-0.094,0.274c-0.119,0.288-0.257,0.57-0.416,0.831h-0.002
		c-0.635,1-1.596,1.74-2.71,2.149h0.001c-0.146,0.054-0.276,0.098-0.424,0.134c-0.447,0.124-0.912,0.212-1.396,0.212
		c-0.385,0-0.759-0.044-1.119-0.124c-2.725-0.49-4.428-2.856-4.428-5.857c0-3.402,2.146-5.961,5.488-5.961
		C12.813,21.305,14.986,23.863,14.986,27.266"/>
	<path d="M47.707,32.073c-0.292,0.436-0.718,0.795-1.279,1.076c-0.563,0.282-1.133,0.419-1.713,0.419
		c-0.491,0-0.938-0.09-1.348-0.271c-0.406-0.181-0.756-0.439-1.046-0.774s-0.517-0.737-0.681-1.21
		c-0.163-0.47-0.243-0.989-0.243-1.553c0-1.143,0.307-2.059,0.924-2.759c0.615-0.697,1.416-1.046,2.394-1.046
		c0.58,0,1.15,0.141,1.713,0.422c0.562,0.278,0.987,0.638,1.279,1.073V32.073z M47.68,24.865c-0.527-0.67-1.135-1.173-1.823-1.509
		c-0.688-0.335-1.423-0.503-2.203-0.503c-0.833,0-1.608,0.158-2.325,0.477c-0.715,0.318-1.334,0.774-1.85,1.374
		c-0.517,0.597-0.921,1.321-1.211,2.173c-0.29,0.854-0.434,1.817-0.434,2.883c0,1.09,0.148,2.065,0.447,2.924
		c0.3,0.861,0.707,1.582,1.224,2.166c0.519,0.58,1.13,1.022,1.837,1.33c0.708,0.309,1.479,0.463,2.312,0.463
		c0.798,0,1.541-0.171,2.231-0.516c0.688-0.346,1.296-0.842,1.822-1.496v1.687h3.481V23.179H47.68V24.865z"/>
	<path d="M9.467,33.217c-0.835,0-1.592-0.154-2.271-0.463s-1.258-0.725-1.727-1.25c-0.473-0.527-0.84-1.15-1.104-1.878
		c-0.262-0.724-0.394-1.516-0.394-2.367s0.132-1.639,0.394-2.366c0.264-0.725,0.631-1.354,1.104-1.888
		c0.469-0.536,1.047-0.952,1.727-1.254c0.68-0.299,1.437-0.449,2.271-0.449c0.832,0,1.59,0.15,2.271,0.449
		c0.679,0.302,1.259,0.718,1.74,1.254c0.481,0.533,0.854,1.163,1.116,1.888c0.262,0.728,0.395,1.515,0.395,2.366
		s-0.133,1.644-0.395,2.367c-0.263,0.728-0.635,1.351-1.116,1.878c-0.481,0.525-1.062,0.941-1.74,1.25
		C11.057,33.063,10.299,33.217,9.467,33.217 M18.252,31.027c0.471-1.153,0.707-2.407,0.707-3.769c0-1.36-0.236-2.614-0.707-3.765
		c-0.473-1.153-1.129-2.146-1.974-2.98c-0.843-0.831-1.845-1.481-3.005-1.944c-1.16-0.459-2.43-0.694-3.807-0.694
		c-1.359,0-2.622,0.235-3.78,0.694c-1.16,0.463-2.163,1.113-3.006,1.944c-0.845,0.835-1.5,1.827-1.973,2.98
		C0.236,24.645,0,25.898,0,27.259c0,1.361,0.236,2.615,0.708,3.769c0.473,1.15,1.128,2.143,1.973,2.977
		c0.843,0.835,1.846,1.485,3.006,1.945c1.158,0.462,2.421,0.693,3.78,0.693c1.377,0,2.646-0.231,3.807-0.693
		c0.16-0.064,0.312-0.141,0.467-0.212l2.807,3.235l2.688-2.206l-2.661-3.084C17.272,32.918,17.838,32.036,18.252,31.027"/>
	<path d="M31.293,32.073c-0.309,0.382-0.718,0.728-1.226,1.032c-0.506,0.309-1.097,0.463-1.767,0.463
		c-0.744,0-1.332-0.174-1.769-0.529c-0.435-0.353-0.651-0.982-0.651-1.891v-7.97h-3.455v9.33c0,1.288,0.344,2.3,1.034,3.031
		c0.688,0.734,1.758,1.103,3.21,1.103c1.086,0,2.017-0.204,2.787-0.609c0.771-0.409,1.382-0.869,1.836-1.375v1.659h3.455V23.179
		h-3.455V32.073z"/>
	<path d="M74.781,24.977v-1.798h-3.453v13.139h3.453v-8.676c0.146-0.218,0.341-0.419,0.586-0.601
		c0.244-0.181,0.518-0.338,0.816-0.476c0.298-0.135,0.606-0.238,0.925-0.313c0.317-0.07,0.62-0.11,0.91-0.11
		c0.382,0,0.697,0.03,0.952,0.084v-3.373c-0.816,0-1.601,0.208-2.352,0.624C75.865,23.896,75.255,24.396,74.781,24.977"/>
	<path d="M97.584,31.664c-0.29,0.419-0.713,0.771-1.266,1.063c-0.552,0.289-1.118,0.437-1.698,0.437
		c-0.98,0-1.778-0.318-2.396-0.952c-0.615-0.634-0.924-1.525-0.924-2.669c0-1.14,0.309-2.028,0.924-2.665
		c0.617-0.634,1.415-0.949,2.396-0.949c0.58,0,1.146,0.142,1.698,0.423c0.553,0.281,0.976,0.637,1.266,1.073V31.664z M97.584,24.865
		c-0.526-0.67-1.133-1.173-1.822-1.509c-0.688-0.335-1.432-0.503-2.229-0.503c-0.835,0-1.605,0.145-2.313,0.437
		c-0.707,0.288-1.317,0.721-1.833,1.29c-0.521,0.57-0.923,1.274-1.211,2.109c-0.291,0.834-0.436,1.783-0.436,2.853
		c0,1.09,0.149,2.052,0.449,2.887c0.299,0.831,0.706,1.532,1.222,2.092c0.517,0.563,1.13,0.989,1.838,1.281
		c0.705,0.288,1.468,0.432,2.284,0.432c0.815,0,1.563-0.181,2.243-0.543c0.679-0.362,1.282-0.871,1.809-1.521V35.5
		c0,0.653-0.107,1.193-0.325,1.619s-0.505,0.764-0.856,1.019c-0.354,0.255-0.746,0.433-1.172,0.53
		c-0.426,0.101-0.848,0.15-1.262,0.15c-0.835,0-1.598-0.127-2.285-0.379c-0.69-0.255-1.297-0.674-1.824-1.254l-1.549,2.505
		c0.834,0.724,1.698,1.233,2.597,1.521c0.897,0.292,1.918,0.437,3.062,0.437c0.814,0,1.639-0.094,2.474-0.271
		c0.833-0.185,1.596-0.503,2.283-0.966c0.69-0.463,1.252-1.1,1.688-1.904c0.434-0.808,0.651-1.837,0.651-3.088v-12.24h-3.481V24.865
		z"/>
	<path d="M114.012,32.073c-0.29,0.436-0.718,0.795-1.279,1.073c-0.562,0.281-1.133,0.422-1.713,0.422
		c-0.49,0-0.938-0.09-1.347-0.271c-0.407-0.181-0.757-0.439-1.046-0.774c-0.29-0.335-0.516-0.737-0.68-1.21
		c-0.163-0.473-0.245-0.989-0.245-1.549c0-1.144,0.308-2.065,0.925-2.763c0.615-0.697,1.415-1.046,2.393-1.046
		c0.58,0,1.151,0.141,1.713,0.422c0.562,0.282,0.989,0.638,1.279,1.073V32.073z M113.984,23.179v1.687
		c-0.527-0.67-1.133-1.173-1.823-1.509c-0.688-0.335-1.424-0.503-2.203-0.503c-0.833,0-1.607,0.161-2.323,0.477
		c-0.717,0.318-1.334,0.774-1.851,1.371c-0.517,0.6-0.922,1.327-1.21,2.179c-0.29,0.852-0.436,1.811-0.436,2.884
		c0,1.086,0.148,2.062,0.449,2.923c0.3,0.862,0.707,1.583,1.223,2.159c0.519,0.584,1.129,1.029,1.836,1.334
		c0.707,0.309,1.479,0.463,2.312,0.463c0.8,0,1.542-0.171,2.231-0.516c0.688-0.346,1.296-0.846,1.822-1.496v1.687h3.481V23.179
		H113.984z"/>
	<path d="M83.027,17.657c-0.562,0-1.046,0.198-1.455,0.587c-0.407,0.389-0.611,0.875-0.611,1.455s0.204,1.069,0.611,1.469
		c0.409,0.398,0.894,0.6,1.455,0.6c0.58,0,1.069-0.201,1.471-0.6c0.396-0.399,0.596-0.889,0.596-1.469s-0.199-1.066-0.596-1.455
		C84.097,17.855,83.607,17.657,83.027,17.657"/>
	<rect x="81.316" y="23.179" width="3.454" height="13.139"/>
	<g>
		<path d="M64.135,32.073c-0.291,0.436-0.718,0.795-1.279,1.076c-0.563,0.282-1.132,0.419-1.713,0.419
			c-0.488,0-0.939-0.09-1.347-0.271c-0.407-0.181-0.758-0.439-1.048-0.774c-0.289-0.335-0.516-0.737-0.68-1.21
			c-0.163-0.47-0.244-0.989-0.244-1.553c0-1.143,0.308-2.064,0.924-2.772c0.615-0.707,1.415-1.06,2.395-1.06
			c0.581,0,1.149,0.142,1.713,0.423c0.562,0.281,0.988,0.637,1.279,1.073V32.073z M64.135,24.865
			c-0.527-0.67-1.139-1.173-1.836-1.509c-0.699-0.335-1.438-0.503-2.216-0.503c-0.835,0-1.611,0.158-2.327,0.477
			s-1.332,0.774-1.849,1.374c-0.519,0.597-0.922,1.321-1.21,2.173c-0.292,0.854-0.437,1.817-0.437,2.883
			c0,1.09,0.149,2.065,0.449,2.924c0.3,0.861,0.706,1.582,1.224,2.166c0.517,0.58,1.129,1.022,1.836,1.33
			c0.707,0.309,1.479,0.463,2.313,0.463c0.796,0,1.54-0.171,2.229-0.516c0.687-0.346,1.295-0.842,1.822-1.496v1.687h3.48V18.174
			h-3.48V24.865z"/>
	</g>
</g>
</svg>
